{
  "type": "service_account",
  "project_id": "terraform-gitlab-318712",
  "private_key_id": "dd97e3a5609fcc37e246d94e1f53d459616ba392",
  "private_key": "-----BEGIN PRIVATE KEY-----\nMIIEvgIBADANBgkqhkiG9w0BAQEFAASCBKgwggSkAgEAAoIBAQCqqlcFaSQVaxqV\neGIl/zjQLD+JMN3KMdPaZgh+J/6GXmQZzTE1PZ5rGNPxw/OgkdiTWxufXY57GQS/\nbYQJkc88Ts2R3Tc4o9Zh3pK1NpgAB5hnfO8dhtyZVOaQGwtKuuQhRkLY2DGkZVfr\nGRPTvkeLgR38i0RRa/44MevILLUPHElH3iz7psyYPXj8jSSPXfO/Mu+NiavykDYT\nEYYC93GRUFCBn/Y1hh+GP/8uPJBwXCELJPZgX2aiUPYSnHxgqg2Oa6eg3nedr7WK\n7yxmIKTPbGXAtFvoIAulIiJME0Fm6AsAITASebloMJcY30ElWAAtvACf33myVTRA\nXrsYKlEDAgMBAAECggEAEfvIwgYIv9sH3kKPsRT6QxwOhox9f9NiprZZZGsey8Ds\nMmMoBsYF80oWofi11jCCzlBA57j04m10ox6iqwbQJrjfujmXGo2lHFisQ+fLT4wo\nApZXH1jj1k0XIziTpt3CW+vqmlf5ryrgqfd8BTQdQjV/rT9tmljTXSThhWKJ97FP\nvp3u834nC1kAhK91nFsufuTt4w7KATLI8XXKoEoPz63vhS8Osa3FZHSvx/X5l/jg\nnxuSZQLlWYVySRl59/G+N5j9O8UHG8i1oYERGwvzEwQNQamZqx6bj1qBekhDXNfE\nZbR+nOrRf2oIRLN3TSPP8yhRCx+NiWZXBkBnpxJjdQKBgQDu1u6dF//sGAN0DShD\nZkM2IFhN+OUZ1X64sYfKnnwiayNBrjs0u1WnmgLvOO0uYz5dprfXspUhQU+8boRG\n+nvzr3CH2VWR6bFqIUqul4HzTvYaZFVHT9EjC8rumelUEhFtcUT1IODZwpJDe1bW\nM7oTVxrr5m88lKIQKYxs3Mm8DQKBgQC27XQwsipk5ygAgrrjxlBq47uqzi52i9RJ\ntvhA2rD4efhTD6xBlTVj1B2E7XEVeoxdWFJl/H9rVFWZA7agC+5lccCdf9Gx9Drw\nMZj6ItQrL4u0YoYwg1D6VRFBxAdg5+jAm96lhHP0dy5M12cqcBoho8Ps80uNS1NG\nOJ0QaYctTwKBgQC2rEMyeeGu5Kr3fvy1mCh95H1FncE0YhsbDgWLDm5pMMJ1gNod\nuc6Icv4dk8+sdBGGNXZVDmyLU9W1jF21n+1f82ZBMRQGltOwFah2IsEso88NXoHv\nGfgeMu3SUnuoZm1X5JNWXQA87VlLLbG8ATIniq63kLaxggj2DaEuviu5nQKBgBRg\n7bHDF2/4RH+SEMnxPOI7jpufrpNsTnEL3iozcsWrqNtwAoun2LPPXJ6DaTawWVTI\n0x0jfPpzAbozLLQ1wBAzFPc21yCRCcPacqVjHenVuSWWWEatSmco9Owzr3K/QzG5\n65ra36QbZuAOmyKiLHcU7G3ISOFrw9It2mmKqBGHAoGBAIH5XvMRsiNgqrZFBexM\n+bSGEQaTFAxc+4UdkZxWbY4M9EkbKGAwwaFUCwjTVbFYN1RWrmesdvpHONL55Hym\ntQOV0YsjiFpMVC0oKGS5EQ3E9XRK/qovaaC32M7g86XsUt3M1hd1w2XBloAL6jPU\nH6BJCLjuoGS0AgsFdXCykyfp\n-----END PRIVATE KEY-----\n",
  "client_email": "tf-gke-sa@terraform-gitlab-318712.iam.gserviceaccount.com",
  "client_id": "105601427927539109278",
  "auth_uri": "https://accounts.google.com/o/oauth2/auth",
  "token_uri": "https://oauth2.googleapis.com/token",
  "auth_provider_x509_cert_url": "https://www.googleapis.com/oauth2/v1/certs",
  "client_x509_cert_url": "https://www.googleapis.com/robot/v1/metadata/x509/tf-gke-sa%40terraform-gitlab-318712.iam.gserviceaccount.com"
}
